<?xml version="1.0" encoding="UTF-8"?>
<svg id="Calque_2" data-name="Calque 2" xmlns="http://www.w3.org/2000/svg" viewBox="0 0 241.78 192.93">
  <defs>
    <style>
      .cls-1 {
        fill: #6f2dbd;
      }
    </style>
  </defs>
  <g id="Calque_1-2" data-name="Calque 1-2">
    <g>
      <path class="cls-1" d="M231.38,178.53c-1.27,.3-2.54,.61-3.82,.9-11.73,2.68-23.6,4.76-35.54,6.23-8.47,1.07-16.97,1.83-25.5,2.27-6.94,.35-13.88,.51-20.82,.41-4-.06-7.94-.31-11.91-.53-2.86-.16-5.73-.34-8.57-.66-2-.22-4-.66-6-1.07s-4.05-.9-6.06-1.4c-2.27-.57-4.53-1.15-6.78-1.79-4.94-1.39-9.98-2.41-15.08-3.05-6.55-.83-13.15-1.06-19.74-.69-9.91,.55-19.71,2.27-29.21,5.14-7.25,2.15-14.29,4.93-21.05,8.31-.39,.22-.83,.34-1.28,.33,.52-.35,1-.71,1.57-1,15.12-9.13,31.89-15.17,49.36-17.79,6.13-.92,12.32-1.3,18.52-1.16,3.54,.1,7.07,.28,10.59,.64,3.07,.31,6.11,.93,9.16,1.41,3.23,.5,6.45,1,9.68,1.47s6.64,1,10,1.44h.55v-1.7c-.09-12.7-.35-25.41-.22-38.11,.12-11.55,.48-23.1,1.09-34.65,.42-8.48,1.31-16.94,2.08-25.4,.27-3,.79-5.87,1.19-8.81,.07-.52,.12-1,.18-1.63l-1.13-.23,1.18-.81-.52-1.16h-.46c-3.13,.7-5.98,2.29-8.23,4.58-1.1,1.09-2.31,2.06-3.51,3.05-.44,.32-.91,.61-1.39,.86l-.25-.24c.73-1.16,1.45-2.33,2.35-3.77-3.81,1.74-6.44,4.74-9.89,6.53,.34-1,1.29-1.66,2.1-2.77-3.49,1.04-6.78,2.68-9.7,4.85,.22-.71,.62-1.37,1.14-1.9,.51-.54,.99-1.1,1.43-1.69-3.96,1.7-7.61,4.07-10.77,7,.08-.35,.12-.71,.23-1,1.13-3.09,2.89-5.9,5.16-8.28l1-1.12c-2.15,.33-4.15,1.33-5.71,2.84,.36-1.43,2.77-4.53,5.42-7,2.17-2.08,4.66-3.8,7.38-5.09l-3.93,.54c.22-.26,.47-.49,.75-.69,.84-.49,1.72-.9,2.64-1.21,1.22-.42,2.31-1.14,3.16-2.11-3.4,.45-6.24,1.94-9.21,3.23l2-1.86c-2.68,.13-5.32,.72-7.8,1.74-2.63,.89-5,2.4-6.91,4.41,.24-1.42,.85-2.76,1.77-3.87-1.78,.59-4,2.2-7,5.15,1.56-4.52,3.4-8.57,6.65-12-1.08,.06-1.77,.77-2.81,1,.11-.3,.24-.6,.39-.88,2.68-3.33,6.14-5.93,10.08-7.59,1.22-.42,2.46-.77,3.71-1.06-1.31-.62-2.69-.21-4.08-.2,4.36-2.35,9.24-3.56,14.19-3.54-6.5-2.6-13.28-2.34-20.28-2,1.01-.59,2.12-.99,3.27-1.17,1.14-.34,2.32-.56,3.47-.89,1.13-.21,2.18-.69,3.08-1.4-2.75-.32-5.53-.32-8.28,0-2.71,.32-5.41,.73-8.14,1,5.2-2.93,10.89-4.89,16.79-5.79-.45-.37-1.07-.46-1.61-.23-.61,.13-1.22,.25-1.83,.35-.25,.02-.5,.02-.75,0,2.03-1.76,4.38-3.12,6.92-4-4.79,0-9,2-13.13,4.14,1.37-2.03,3.32-3.61,5.59-4.54-3.6,.65-7.1,1.5-10,3.88,.89-1.56,2.19-2.86,3.75-3.75,1.51-1,3.08-1.88,4.82-2.93l-1-.09v-.22c.92-.6,1.83-1.22,2.79-1.75,.69-.29,1.36-.62,2-1l-3.1,.45c4.39-2,8.72-4.15,13.77-3.62v-.27l-1.38-.52v-.22c2,.08,3.91,.11,5.86,.25,1.19,.11,2.37,.29,3.54,.54,2.87,.64,5.49,2.08,7.55,4.17,3.11,3.04,5.65,6.61,7.51,10.54,.18,.42,.45,.81,.79,1.12v-1.36c-.34-4.4,.2-8.82,1.6-13,.61-1.65,1.41-3.24,2.15-4.84,.18-.38,.47-.69,.83-.9l-.3,1.91c1.03-1.92,2.18-3.79,3.42-5.58,1.41-1.65,2.91-3.21,4.5-4.69-.1,.69-.18,1.2-.3,2,2.09-2,3.75-4,6.25-5.54-.32,.83-.54,1.42-.84,2.21,.36-.12,.71-.27,1.06-.43,1.49-.88,3-1.76,4.44-2.66,1.67-1.08,3.51-1.89,5.44-2.4,.26-.06,.52-.1,.78-.12,.07,0,.13,.07,.27,.15l-3.2,2.59,.13,.28,4.48-1.15,.17,.25c-.27,.38-.56,.74-.88,1.08-1.43,1.32-2.87,2.63-4.33,3.91-1.17,1-2.38,2-3.55,3-.33,.29-.62,.63-.86,1,1.85-.81,3.83-1.25,5.84-1.32-1.9,1.22-3.68,2.11-5.15,3.8l4.4-1.16,.14,.25c-.34,.31-.67,.63-1,.93-1.69,1.42-3.43,2.8-5.08,4.27-1.55,1.34-2.79,3-3.64,4.86,1.24-.56,2.26-1.57,3.86-1.69-.4,.35-.68,.61-1,.85-1.44,1.24-2.64,2.74-3.53,4.42-.28,.62-.51,1.27-.69,1.93l.23,.23,3.46-1.74,.13,1.28c1.45-3,2.88-5.73,6.09-7-.27,.75-.55,1.5-.86,2.35,.12-.01,.23-.04,.34-.09,1.74-1.22,3.49-2.42,5.18-3.7,.42-.32,.68,.07,1,0,.36-.16,.72-.35,1.05-.56,1.48-.66,3-1.3,4.65-2l-.44,1c2.51-1,4.78-.3,7.07,.4,1.02,.3,2.05,.53,3.1,.68,3,.41,5.82,1.67,8.13,3.62,.32,.28,.61,.6,1.11,1.11l-2.68-.39,3.61,4.09-.15,.22-1.89-.55c.67,.69,1.17,1.18,1.65,1.69s.95,1.06,1.38,1.61,.91,1.2,1.34,1.82,.78,1.19,1.14,1.79,.75,1.31,1.11,2,.66,1.25,1,1.89,.63,1.33,1.06,2.25c-1.93-.44-3.32-1.49-5.13-2.11l1,2-.14,.12c-1.08-.74-2.14-1.49-3.23-2.21-1.09-.82-2.32-1.45-3.62-1.86,0,.88,.68,1.26,1.07,2-2.41-1.09-4.4-2.77-7.06-3.11l.5,.65-8.38-.44,1,.91c-2,.93-4,.82-6.05,1.22l2.48,.89-5,1.66c1.1,.42,2.29,.49,3.43,.2,2.98-1.03,6.15-1.43,9.29-1.16,.42,.03,.83,.16,1.19,.39l-3.66,1.42v.28c.47,.14,.95,.25,1.43,.31,1.94,.11,3.89,.17,5.83,.27,1,.05,1.91,.17,2.86,.25v.27h-2.63c.37,.56,.97,.93,1.64,1,1.55,.36,3.12,.63,4.7,.8,3.79,.32,7,2.11,10.35,4.1l-3.99-.36-.1,.31c2.35,1.54,5.29,2,7.37,4.14l-3-.77c2.67,2.58,5.77,4.54,6.57,8.54-5.54-4.13-11.34-6.94-18.22-6.92l4.22,2-.09,.27-9.31-1.19-.06,.3,.84,.28c-.27,.15-.55,.27-.85,.35-1.71,.2-3.43,.42-5.14,.54-2.3,.07-4.58,.46-6.78,1.15-.45,.16-.59-.21-.8-.25-.55,0-1.09,.15-1.54,.47,.82,.25,1.65,.49,2.47,.76,3.18,1.07,6.4,2,9.53,3.27,3.48,1.33,6.7,3.27,9.49,5.74,1.63,1.44,3.03,3.13,4.15,5,.16,.26,.25,.55,.29,.85-2.51-1.26-4.23-3.66-7-4.58,.31,.35,.6,.7,.91,1,2.07,2.19,3.94,4.56,5.57,7.1,2.06,3.18,3.11,6.92,3,10.71,0,.7-.14,1.4-.25,2.41-.23-.49-.36-.69-.43-.91-.63-1.91-1.91-3.54-3.61-4.61-.77-.52-1.59-1-2.37-1.46-1.5-.93-3-1.87-4.44-2.79l1.61,5.29-.25,.13c-1.48-2.31-3.24-4.43-5.24-6.3-.82-.87-1.82-1.55-2.93-2-1.86-.75-3.74-1.48-5.65-2.15,1.89,2.19,4.56,3.43,6.47,5.62-.38-.17-.78-.31-1.15-.52-2.41-1.38-4.84-2.76-7.24-4.17-2.99-1.9-6.16-3.49-9.47-4.76-.41-.14-.84-.26-1.27-.37-.16,0-.32,.03-.47,.08,1.92,1.45,4.08,2.32,5.59,4.07-1.74-1-3.41-2.07-5.23-2.86-1.88-.77-3.81-1.41-5.78-1.91-2-.53-3.94-.89-5.91-1.33l-.12,.26,1.84,1.32-.08,.17c-.21-.02-.42-.05-.63-.1-1.09-.47-2.32-.47-3.41,0-1.54,.56-3.25,.28-4.53-.74-.48-.31-.92-.68-1.44-1.07-2.12,1.34-3.52,3.57-3.81,6.06-1.83,16.02-2.63,32.13-2.4,48.25,.14,9.83,.64,19.64,1.58,29.43,.87,9.12,2,18.2,3.66,27.22,0,.21,.11,.42,.19,.75,30.29,3.67,60.49,2.72,90.64-1.58l.09,.29h0ZM112.2,33.16c-2.33-2.03-5.71-2.33-8.36-.74,2.81-.24,5.64,0,8.36,.74Zm32.94,6.91c.81-1.4,1.38-2.92,1.68-4.51-1.13,1.22-1.73,2.84-1.68,4.51Zm-27.16-7.82l-4.74-.7c1.32,1.11,3.15,1.38,4.74,.7Zm3.77,3.24l.05-.3-3.32-1c.64,1.15,2.01,1.7,3.27,1.3Zm4.25,3.83l-.17,.23c.98,1.23,1.82,1.81,2.53,1.74,0,0-2.36-1.97-2.36-1.97Zm2.3,3.19c.23,.68,.61,1.3,1.12,1.8,.23-.49-.14-1.09-1.12-1.8Z"/>
      <path class="cls-1" d="M49.2,96.01l.93,1c-.49,1.62-1,3.28-1.52,4.94-.14,.32-.25,.66-.34,1-.09,.36-.07,.75,.06,1.1,.38,.53,.29,1.26-.2,1.68v-1.2h-.17l-.75,2.05,.89-.18c0,.08,.07,.17,0,.23-.08,.26-.17,.51-.27,.75-.23,.5-.15,.98,.23,1.45-1.24,.77-1.36,2.06-1.71,3.47,.71-.55,.51-1.49,1.51-1.88-.57,1.4-.34,2.75-1.24,3.86-.28,.35-.08,1.07-.19,1.61s-.39,1.24-.54,1.87c-.11,.41-.09,.86-.21,1.27-.22,.69-.81,1.29-.38,2.1,0,.09-.11,.38-.23,.44-1.12,.54-.57,1.39-.28,2.23,.37-1.09,.73-2.18,1.12-3.26,.18-.51,.12-1.18,.83-1.4,.1-.08,.16-.19,.17-.32,.08-1.75,1.24-3.11,1.68-4.73,.06-.23,.38-.42,.62-.57,.71-.41,.95-1.32,.54-2.04-.04-.07-.09-.14-.14-.2,1.16-.31,1.22-1.41,1.57-2.56,.63,1.1-.07,1.71-.27,2.39-.15,.53-.36,1-.52,1.58s-.39,1.26-.55,1.89c-.53,2-1,3.92-1.57,5.87-.17,.38-.31,.78-.42,1.18,.49-.55,.84-1.21,1-1.93,.15-.46,.32-.91,.53-1.34,0-.08,.28-.07,.42-.1h0c-.86,2.83-1.66,5.69-2.6,8.5-2.78,8.34-5.58,16.68-7.75,25.21-.15,.55-.27,1.12-.39,1.68-.03,.55-.5,.98-1.05,.95-.05,0-.1,0-.15-.02-.57-.09-1.14-.14-1.71-.17-.81-.08-1.63-.08-2.44,0-.36,.05-.69,.47-1,.78-.68,.77-1.79,1.01-2.73,.6-.38-.21-.67-.54-.82-.95-.22-1-1.07-1.85-.73-3.1,.15-.57-.42-1.34-.67-2-1.03-3.2-1.81-6.48-2.31-9.8-.59-3.17-1.06-6.37-1.6-9.55,0-.29-.17-.57-.35-1.17-.74,1.57-1.4,2.86-2,4.19-2.41,5.65-4.8,11.32-7.17,17-.17,.61-.74,1.03-1.37,1-1.86,.1-3.71,.23-5.56,.4-.79,.07-1.56,.31-2.35,.43-1.71,.27-2.65-.46-2.74-2.16-.13-2.42-.25-4.84-.3-7.26-.19-9-.24-18.06-.53-27.08-.19-5.79-.69-11.57-1.07-17.35-.11-1.63-.28-3.26-.41-4.89,0-.33,.02-.67,.06-1,1,.08,1.88,.11,2.77,.26,.89,.15,1.85,.46,2.79,.64,.34,.06,.68,.02,1-.11,.51-.18,.95-.39,1.5,0s1.21,.6,1.3,1.51c.22,2.38,.67,4.74,.87,7.11,.7,8.38,1.16,16.78,1.15,25.19,0,.98,.13,1.97,.41,2.91,.36-.68,.75-1.35,1.09-2.05,2-4.1,3.95-8.21,5.95-12.3,.26-.54,.78-1,1-1.49,.49-1.11,.72-2.32,.68-3.54v-4.18c.92-.15,1.85-.13,2.76,.06,.81,.11,1.63,.2,2.44,.37,.39,.12,.77,.28,1.12,.49,1-1.14,2.13,0,3.36-.07,2.07,7.78,3.21,15.69,4.67,23.54h.3c.18-.51,.38-1,.55-1.52,1.86-5.39,3.7-10.79,5.58-16.18,.34-.95,.85-1.83,1.24-2.77,.08-.33,.13-.66,.16-1,.07-.57,.26-1.13,.55-1.63,.76-1,1-2.2,1.7-3.19,.26-.4-.46-.82,.23-1.15,.34-.18,.5-.79,.68-1.23s.23-1,.42-1.39,.51-.83,.72-1.26c.13-.33,.23-.66,.32-1,.23-.67,.44-1.34,.69-2,.1-.41,.52-.67,.93-.56,.08,.02,.17,.06,.24,.1l-.03-.05h0ZM8.3,128.93c0,3.15,0,6.25-.32,9.49,.62-.84,.92-1.88,.86-2.92,.01-1.94-.09-3.87-.31-5.8-.04-.27-.12-.52-.23-.77Zm23.57,4.42l-.36,.07c0,.86-.08,1.77,.75,2.46l-.39-2.53h0Zm12.21-7.08l-.31-.27c-.14,.19-.27,.4-.39,.61,0,0,.19,.15,.29,.23,0,0,.41-.57,.41-.57Zm-12.71,5.47c.29-.46,.28-.82-.32-1l.32,1Zm-8.78-8.69l-.25-.2c-.39,.2-.64,.47-.43,1.2l.68-1Zm8.27,5.55l.27-.07-.21-.93-.29,.07,.23,.93h0Zm16.71-5.12c-.33,.26-.83,.48-.45,1.15l.45-1.15Zm-15.15,13.87l-.28,.08,.25,.78,.24-.07s-.21-.79-.21-.79Zm-24.21-14.09c.25-.28,.26-.54,.05-.78l-.05,.78Z"/>
      <path class="cls-1" d="M94.89,102.67l1.39,1.52c-.51,.61-.8,.54-1,0l-.86,.64,.5,1c-.27,.06-.54,.11-.82,.13-6.83,.09-13.59,1-20.37,1.66-2.34,.25-2.37,.23-2.89,2.51-.87,3.79-1.69,7.6-2.52,11.4-.02,.2-.02,.4,0,.6,.33,.02,.67,.02,1,0,5.36-.65,10.71-1.38,16.07-1.92,1.33-.14,2.55-.58,3.84-.78s1.47-.07,1.9,1.16c.42,1.33,.69,2.7,.79,4.09l-1.29,.48-.1-1.24c-.16,.11-.4,.2-.41,.29,0,.95-.44,1.37-1.4,1.29-.26,.03-.52,.1-.75,.23-.68,.34-1.44,.5-2.2,.44-.48-.13-.99,.06-1.27,.47-.29,.27-.7,.39-1.09,.33-.63-.08-1.28,.07-1.81,.42l1.45,.3c.8-.17,1.36-.32,1.93-.41,1-.14,2,.07,2.94-.41,.12-.04,.26-.04,.38,0,.77,.17,1.57,.06,2.26-.32,.34-.15,.79,.13,1.23-.15,.37-.12,.77,.09,.89,.46,.01,.05,.02,.1,.03,.15,0,.17,.47,.28,.82,.48l-1.89,1,1.43,.39c-1.39,.51-2.84,.85-4.31,1-6.33,1-12.67,2-19,3-.83,.13-1.65,.35-2.48,.46-.77,.03-1.37,.68-1.34,1.45v.06c-.06,.88-.2,1.76-.23,2.64-.14,3.27-.47,6.55,.4,9.77,.18,.68,.41,1.35,.67,2,.31,.73,.71,1.42,1.11,2.22,.8-.07,1.59-.19,2.37-.36,1.76-.43,3.48-.98,5.16-1.65,1.95-.91,3.85-1.94,5.67-3.08,.63-.49,1.18-1.07,1.63-1.73,.3-.35,.58-.69,1.09-.61,1.48,.05,2.93,.5,4.19,1.28,.63,.55,1.39,.93,2.21,1.11,.68,.05,1.4-.54,2.12-.85l1.45,1.28c-.1,.89-.67,1.65-1.49,2-.66,.42-1.25,.92-1.78,1.5-.34,.34-.71,.65-1.11,.91-3.53,1.95-7.29,3.43-11.2,4.42-2.37,.56-4.84,.63-7.24,.22-3.19-.52-6.36-1.15-9.56-1.56-4.48-.57-7.24-4.3-8.06-7.9-.51-2.56-.72-5.17-.61-7.78,.24-5.62,1.12-11.19,2.63-16.6,1.68-6.78,3.57-13.5,5.39-20.25,.21-.54,.21-1.13,0-1.67-.07-.16-.12-.33-.17-.5-.57-1.81-.36-2.23,1.51-2.46,3-.37,6-.72,9-.94,6.75-.5,13.51-.94,20.29-.82,.4-.03,.79-.03,1.19,0,.79,.08,1.44,.64,1.65,1.4,.56,1.69,.79,3.47,.69,5.25l-.02,.58h0Zm-3.34-.45c.34,.37,.37,1,1.06,.45,.15-.13,.66-.11,.72,0,.47,.83,.78,.12,1.22,.06l-.65-1s-2.35,.49-2.35,.49Zm-.62,26.45c-1.29-.13-2.6,.11-3.76,.7,.79,.4,1.34-.28,1.94-.14s1.13-.65,1.82-.56Zm-2.55-25.87h2.63c-.12-.27-.19-.67-.31-.69-.59-.1-1.19-.12-1.79-.06-.21,.03-.35,.49-.53,.75Zm-27.08,37.27h-.12v1h.12v-1Zm22.94-10.41l.1,.32,.75-.24-.1-.32-.75,.24Z"/>
      <path class="cls-1" d="M111.14,138.97c-.19-.26-.26-.42-.38-.5-.14-.12-.32-.19-.51-.2-.11,0-.28,.27-.26,.39,.18,.83-.08,1.69-.7,2.28-.12,.12-.08,.41-.1,.63l-.27,2.27h-.3l-.16-1.84h-.2l-.35,1.39h-.27c0-.32,.11-.65,.14-1s0-.67,0-1.11l.92-.34c-1-.67-.64-1.73-.88-2.6-.1-.38,.93-.62,.52-1.26s.12-1.06,.33-1.58l-.67-.32c.56-.32,.76-1.03,.44-1.59-.09-.43-.09-.88,0-1.31,.06-.4,.04-.8-.07-1.19-.09,.27-.21,.54-.28,.82-.45,1.1-.76,2.26-.9,3.45-.03,.75-.13,1.49-.28,2.22,0,1.23-.35,2.43-1,3.48-.19,.23-.14,.67-.15,1v1.7l-1.25,.36c-.56,1.01-.85,2.14-.85,3.29-.02,.44-.08,.88-.17,1.31-.11,.28-.44,.48-.76,.82,0,1,.6,2.22-.13,3.64l-.62-1.44c-.43,2.26-.83,4.37-1.23,6.53l-3,.39c.24-.74,.4-1.51,.48-2.28,0-.75-.3-1.48-.3-2.27l.26,.54c.33-.94,.37-1.95,.11-2.91-.09-.7-.09-1.4,0-2.1,0-.07,.28-.13,.45-.2-.22-2.61,.04-5.23,.76-7.75,.04-.17,.07-.34,.08-.51,.38-3.78,.68-7.57,1.16-11.34,.62-4.91,1.34-9.81,2.09-14.7,.82-5.38,1.68-10.75,2.59-16.11,.31-1.82,.63-2,2.5-1.86,.18,0,.36,.02,.53,.06l4.25,1.28c.81-1,1.77-.21,2.69,.18s1,1.25,.94,2c-.07,2-.11,4.08-.37,6.09-.73,5.61-1.54,11.21-2.36,16.81-.63,4.33-1.32,8.65-2,13-.13,.74-.31,1.46-.47,2.38Zm-1-1.18c.44,.22,.7-.06,.78-.41,.31-.85,.16-1.8-.4-2.52-.15,1.15-.22,2.04-.38,2.93h0Zm-5.61,5.73c.18-.22,.33-.46,.43-.73,.08-.48,0-1,.09-1.46s.14-1,.2-1.54c-.11-.06-.23-.11-.35-.16-.25,1.28-.37,2.58-.37,3.89Z"/>
      <path class="cls-1" d="M49.23,96.04c-.5-.77-.45-1.78,.12-2.5,.6,.48-.22,1.1,.21,1.58,.68-.31-.09-1.59,1-1.63,.39,1.49,0,2.11-1.36,2.51,0,0,.03,.04,.03,.04Z"/>
      <path class="cls-1" d="M49.81,118.19c-.33-1.25,.39-2.24,.74-3.32l.3,.08c-.17,.54-.33,1.08-.51,1.61s-.36,1.07-.54,1.61v.02h0Z"/>
      <path class="cls-1" d="M111.03,139.82l-.24,2c-.75-.81-.49-1.44,.24-2Z"/>
      <path class="cls-1" d="M108.51,146.48l-.41,2.56h-.27l.35-2.55h.33Z"/>
      <path class="cls-1" d="M51.91,112.19l-.56,1.92-.32-.08,.61-1.92,.27,.08Z"/>
      <path class="cls-1" d="M104.87,144.17c.48,.55,.4,.94-.25,1.19l.25-1.19Z"/>
      <path class="cls-1" d="M48.77,107.61l.22-1.38,.37,.06-.23,1.37-.36-.05Z"/>
      <path class="cls-1" d="M107.83,144.4l-.23,1.34-.3-.06,.27-1.31s.26,.03,.26,.03Z"/>
      <path class="cls-1" d="M52.04,107.52l-.36,.75-.23-.09,.3-.77s.29,.11,.29,.11Z"/>
      <path class="cls-1" d="M106.84,149.05l.2-.71,.19,.06-.18,.7-.21-.05h0Z"/>
      <path class="cls-1" d="M101.94,155.85c.47,.47,.17,.8-.17,1.13v-.49c0-.16,.11-.38,.17-.64Z"/>
      <path class="cls-1" d="M101.86,157.64l-.16,.72h-.29l.06-.76s.39,.04,.39,.04Z"/>
      <path class="cls-1" d="M105.02,146.3l-.41,.27c-.07-.12-.23-.28-.2-.35s.24-.19,.37-.28l.24,.36Z"/>
      <path class="cls-1" d="M105.01,148.84c-.16,.06-.32,.1-.49,.12-.1,0-.2-.11-.3-.17,.1-.16,.21-.31,.32-.46,0,0,.2,.12,.31,.19l.16,.32Z"/>
      <path class="cls-1" d="M96.3,105.46c-.24,.11-.37,.22-.51,.22s-.17-.14-.26-.22c.11-.1,.23-.19,.37-.25,.06-.02,.17,.11,.4,.25Z"/>
      <path class="cls-1" d="M173.26,98.14c5.29-1.85,10.33-1.69,15.12,.49,.94,.43,2.46,2.1,4.57,4.99l-.17,.06,.28,.24,.25,.71c1.05,3.01,1.3,5.77,.74,8.27,.13,2.98-1.31,6.65-4.3,11.03-.21,.07-.78,.96-1.7,2.65-.11,.06-.61,.84-1.5,2.32-.54,.19-.82,.5-.85,.94,.19,.03,.41,0,.64-.07,.07,.2,0,.34-.17,.4-.33-.11-.56-.15-.7-.1-.63,.45-.86,.91-.69,1.39,.5-.61,.87-.95,1.13-1.04l.1,.27c-1.31,1.12-2.04,1.71-2.21,1.76l.05,.14,.59-.21,.05,.14c.06,.16-.14,.39-.58,.7l-.33-.04c-.21,.07-.98,.76-2.3,2.06,.13,.38,.46,.49,.97,.31-.34,.88-.77,1.41-1.29,1.59l-.25-.26c.15-.16,.29-.25,.41-.3l-.27-.21c-2.58,2.05-5.02,4.52-7.33,7.41-.28,.1-1.59,1.57-3.94,4.43-.3,.11-.83,.66-1.58,1.66,10.29-1.98,17.12-2.71,20.47-2.18,.24,.45,2.1,.56,5.61,.32,.06,.16,.51,.53,1.37,1.12l-.23,.23c-.39-.07-.67-.07-.83,0-.26,.3-.49,.48-.67,.54,.03,.09,.33,.32,.9,.67,.06,.18,0,.3-.18,.37-.78-.06-1.38,0-1.8,.13l-.31,.45-.15-.44-1.05,.37c-.18,.09-.24,.22-.17,.4l.05,.14,.14-.05c.15-.16,.29-.25,.41-.3,.16,.3,.58,.57,1.27,.81l.06,.17-.14,.05c-.28,.1-.96,.06-2.04-.12l-.59,.21,.15,.44,.78-.12,.45-.16c.21,.61-.09,1.15-.92,1.62l.66,.42,.05,.14c-.99,.63-1.56,1.04-1.72,1.25l-.45,.16c-.23,.08-.45,.11-.64,.07-.13,.15-.31,.26-.55,.34-.09,.03-.51,.13-1.24,.28l-.14,.05,.05,.14c2.72-.29,4.2-.48,4.43-.56l.1,.27-.42,.15c-1.07,.17-1.62,.2-1.66,.09-.09,.03-.12,.11-.08,.22-14.11,2.89-23.81,4.24-29.11,4.06-.44,.16-.75,.21-.92,.17-.13,.15-.31,.26-.55,.34l-.28,.1c-1.17,.41-2.11,.09-2.84-.95-.35,.12-1.07-.86-2.17-2.94-.3,.11-.79-.8-1.46-2.73-.35-1.15-.45-1.75-.31-1.79l-.25-.26-.05-.14c-.52-1.49-.4-2.72,.36-3.67l.86-.45,.59-.21c.76-.06,1.19-.11,1.28-.14,2.87-2.18,6.58-6.1,11.1-11.77,7.21-9.05,14.19-17.4,20.93-25.05,.72-1.32,1.14-2,1.28-2.05l-.11-.31c-2.41,0-3.97,.13-4.69,.39,.06,.18,0,.3-.18,.37l-.59,.21c-.09,.03-.16,0-.19-.09l-.27,.25-1.38,.33-.05-.14,.03-.35-1.15,.4,.11,.31-1.05,.37-1,.5-.05-.14-.23,.23c-3.36,1.38-5.94,2.39-7.73,3.01l-.87,.31c-.49,.17-1.01,.3-1.55,.39-5.15,2.03-7.64,3.29-7.47,3.76l-.28,.1c-1.23-2.24-2.74-4.02-4.54-5.34-.62-.8-.94-1.22-.95-1.27l-.03-.64-.53-.96c-.57-1.63,2.7-4.6,9.82-8.93,3.68-1.82,7.27-3.4,10.78-4.73l-.02,.04Zm-5.4,59.87c.1,.27,.69,.22,1.79-.17-.1-.27-.69-.22-1.79,.17Zm2.21-.32l.06,.17c.42-.15,1.28-.08,2.58,.2,.09-.03,.12-.09,.09-.18l.78-.12,.59-.21c.13,.38,1.96,.07,5.48-.93,.06,.18,.58,.1,1.56-.24l.14-.05-.1-.27-2.97,.05c-.15,.18-.27,.28-.36,.32-.03-.09-.23-.18-.61-.28l-.23,.23-.31,.11c-2.89,.48-4.63,.71-5.22,.68l-1.5,.53h.02Zm2.37-1.3c.09,.17,.22,.23,.41,.16l.14-.05c-.06-.18-.2-.23-.41-.16l-.14,.05Zm1.63-1.07l.11,.31,.28-.1,.1,.27-.73,.26,.1,.27,.31-.11,1.07-.19-.11-.31-.28,.1-.1-.27c.07-.02,.38-.08,.92-.17,.15-.15,.29-.25,.41-.29l-.05-.14c-.19,.07-.62,.1-1.3,.11-.13,.15-.31,.26-.55,.34-.03-.09-.09-.12-.19-.09h0Zm6.13-.54l.06,.17,1.98-.39,.46-.16-.05-.14-1.44,.16-1.01,.35h0Zm2.92,1.27l.05,.14,.59-.21-.05-.14-.59,.21Zm9.22-2.13l.42-.15,.11,.31-.42,.15-.11-.31Zm-.33-2.28c.73-.15,1.13-.14,1.19,.04l.06,.17c-.82,.21-1.26,.2-1.34-.02,.09-.03,.12-.09,.09-.18h0Zm-9.02-41.46l.42-.15,.1,.27-.42,.15-.1-.27Z"/>
      <path class="cls-1" d="M225.26,98.67c1.36,.25,2.55,.91,3.57,2,.45-.06,1.04,.43,1.75,1.44,1.3,.48,1.97,.97,2.01,1.47v.25c.04,.31-.13,.78-.51,1.41l.03,.4c.32,.41,.51,.62,.59,.63,0,.97-.05,1.47-.14,1.49l.2,.91,.19,1.9c.03,.29,.09,.51,.19,.66,.32,3.6-.34,9.95-1.97,19.05,0,.1-.1,.15-.26,.16v.29c.11-.02,.15-.07,.13-.17,3.11,.65,5.53,.97,7.26,.98,0,.1,.04,.15,.14,.16,1.18-.21,2.28-.54,3.3-.98l.02,.14c0,.19-.21,.34-.65,.44l.02,.14,.65-.04c-.05,.28-.81,.7-2.29,1.28v.25l.15-.02c.63-.14,.99-.21,1.06-.22v.29c-.66,.31-1.09,.49-1.28,.52l.02,.11,.29,.39,.02,.14c0,.19-.38,.41-1.17,.64v.25c.51,.06,.87,.08,1.11,.06,.78-.16,1.21-.25,1.3-.27l.05,.28-.93,.35v.25l.67-.19,.05,.28-.13,.28c.2,0,.3,.09,.3,.24l.02,.14c-.08,.26-.34,.41-.79,.47l.02,.14,.28,.35c.07,.52-.2,1-.81,1.42l.54-.02-.22,.4,.29,.39,.02,.14-.26,.41,.32,.38v.15c.04,.43-1.49,.92-4.61,1.47-.87,.45-2.05,.73-3.54,.84l-2.95,.26c-.22,.14-.76,1.22-1.62,3.24-.87,1.44-1.48,2.67-1.83,3.68l.05,.69-.68-.1,.03,.4,.56,.08v.15c0,.14-.15,.29-.51,.45l-.03-.4c-.15,0-.26,.23-.35,.68h.29l.02,.13c0,.17-.09,.27-.28,.3l-.28-.13c-.84,2.56-1.24,4.08-1.21,4.56l-.14,.02-.27-.1c-.31,.44-.47,1.13-.48,2.06-.22,0-.41,.52-.57,1.53-.48,.43-.75,.95-.78,1.56l-.43,.04c-.17,0-.27-.21-.3-.64h-.15c-.25,.08-.52,.65-.79,1.7-.26,.02-.51,.31-.73,.86l-.43,.04c-.12-.42-.21-1-.27-1.74l-.14,.02c.04,.36-.12,.64-.47,.85l-.4,.03-.08-1.08c-.03-.17-.13-.25-.3-.24l-.14,.02,.04,.25-.14,.02c-.19,0-.3-.12-.32-.38-.17,.03-.23,.26-.21,.69l-.4,.03c-.11-.32-.19-.81-.26-1.45l-.14,.02c-.04,.47-.05,.74-.04,.81h-.29c-.36,.05-.66-.73-.89-2.35l-.21-2.67c-.22-2.47,.7-6.92,2.76-13.35-5.01-.11-9.02-.53-12.02-1.24-.03-.19-1.05-.51-3.06-.96-.45-1.31-.82-1.95-1.11-1.92-.17,0-.24,.14-.22,.4l-.43,.04-.03-.4-.25,.04-.26,.16-.16-.26c.29-1.1,.51-1.66,.65-1.69v-.15l-.27,.05c.02,.09-.02,.14-.12,.13v-.25c.37-.6,.56-.98,.56-1.12-.1,0-.14-.05-.13-.12-1.08,.38-1.89,.86-2.45,1.42l-.14,.02c-.63,.04-.98-.47-1.07-1.53,.42-1.1,2.29-3.79,5.63-8.08,9.99-11.97,15.67-19.21,17.03-21.74,3.3-5.06,5.5-7.64,6.6-7.74v.08Zm-5.79,24.14c-.65,.5-1.37,1.47-4.77,5.13-.81,.78-2.48,2.48-2.49,2.58,.41,.12,3.99-.16,7.21-.14l1.82-9.44-1.78,1.86h0Zm3.64,35.91l.16,.26c-.24,.31-.35,.58-.33,.83l-.14,.02-.05-.69c-.02-.12,.1-.26,.36-.43h0Zm16.18-26.55l.02,.14,.14-.02c.87-.2,1.29-.41,1.28-.63h-.25c-.74,.36-1.14,.53-1.19,.51h0Z"/>
    </g>
  </g>
</svg>